project 1
…
spotify <- spotify %>% separate(endTime, into = c("date", "time"), 
    sep = " ", convert = T)

# I join my spotify data with my health app data!
joined1 <- inner_join(health, spotify, by = "date")

Now I am going to wrangle the data.

First I will use all six core dplyr functions, and then I will create summary statistics for each numeric variable.

# sort out all the songs and dates I listened to Jimmy
# Buffett (My favorite)
joined1 %>% filter(artistName == "Jimmy Buffett")

## # A tibble: 1,092 x 7
##    date   time.x steps time.y artistName   trackName                    msPlayed
##    <chr>  <chr>  <dbl> <chr>  <chr>        <chr>                           <dbl>
##  1 4/5/20 10:23     26 21:09  Jimmy Buffe… Cheeseburger In Paradise       171600
##  2 4/5/20 10:23     26 21:12  Jimmy Buffe… Changes In Latitudes, Chang…   194466
##  3 4/5/20 10:23     26 21:14  Jimmy Buffe… Pencil Thin Mustache                0
##  4 4/5/20 10:23     26 21:14  Jimmy Buffe… A Pirate Looks At Forty           452
##  5 4/5/20 10:23     26 21:14  Jimmy Buffe… He Went To Paris                  696
##  6 4/5/20 10:23     26 21:14  Jimmy Buffe… Margaritaville                   1149
##  7 4/5/20 10:23     26 21:14  Jimmy Buffe… Come Monday                         0
##  8 4/5/20 10:23     26 21:14  Jimmy Buffe… Grapefruit - Juicy Fruit          801
##  9 4/5/20 10:23     26 21:14  Jimmy Buffe… Boat Drinks                         0
## 10 4/5/20 10:23     26 21:14  Jimmy Buffe… Why Don't We Get Drunk           1010
## # … with 1,082 more rows

# selected columns that contain a '.'
joined1 %>% select(contains("."))

## # A tibble: 34,339 x 2
##    time.x time.y
##    <chr>  <chr> 
##  1 8:29   18:15 
##  2 9:53   18:15 
##  3 10:27  18:15 
##  4 12:06  18:15 
##  5 13:10  18:15 
##  6 15:10  18:15 
##  7 15:57  18:15 
##  8 16:35  18:15 
##  9 18:51  18:15 
## 10 19:35  18:15 
## # … with 34,329 more rows

# arranged the data by which time I took the most steps fun
# fact, 4/23/20 was my 21st birthday. As you can see I
# listened to a lot of Pitbull
joined1 %>% arrange(desc(steps))

## # A tibble: 34,339 x 7
##    date    time.x steps time.y artistName  trackName                    msPlayed
##    <chr>   <chr>  <dbl> <chr>  <chr>       <chr>                           <dbl>
##  1 4/23/20 12:29   1032 16:15  Pitbull     Fireball (feat. John Ryan)     191701
##  2 4/23/20 12:29   1032 16:17  Pitbull     Go Girl                         11946
##  3 4/23/20 12:29   1032 16:17  DJ Snake    Taki Taki (with Selena Gome…     1408
##  4 4/23/20 12:29   1032 16:17  Pitbull     Fireball (feat. John Ryan)      43584
##  5 4/23/20 12:29   1032 16:17  Jason Deru… It Girl                            63
##  6 4/23/20 12:29   1032 16:17  B.o.B       Nothin' on You (feat. Bruno…      874
##  7 4/23/20 12:29   1032 16:18  Pitbull     Dame Tu Cosita - Radio Vers…    44480
##  8 4/23/20 12:29   1032 16:18  Nelly       Hot In Herre                      725
##  9 4/23/20 12:29   1032 16:18  Olly Murs   Troublemaker (feat. Flo Rid…     5312
## 10 4/23/20 12:29   1032 16:19  Major Lazer Trigger                           725
## # … with 34,329 more rows

# group data by artist
joined1 %>% group_by(artistName)

## # A tibble: 34,339 x 7
## # Groups:   artistName [545]
##    date    time.x steps time.y artistName  trackName                    msPlayed
##    <chr>   <chr>  <dbl> <chr>  <chr>       <chr>                           <dbl>
##  1 12/25/… 8:29      13 18:15  Adolphe Ad… O Helga natt (Cantique de N…   114273
##  2 12/25/… 9:53      18 18:15  Adolphe Ad… O Helga natt (Cantique de N…   114273
##  3 12/25/… 10:27     12 18:15  Adolphe Ad… O Helga natt (Cantique de N…   114273
##  4 12/25/… 12:06     38 18:15  Adolphe Ad… O Helga natt (Cantique de N…   114273
##  5 12/25/… 13:10     16 18:15  Adolphe Ad… O Helga natt (Cantique de N…   114273
##  6 12/25/… 15:10     10 18:15  Adolphe Ad… O Helga natt (Cantique de N…   114273
##  7 12/25/… 15:57    121 18:15  Adolphe Ad… O Helga natt (Cantique de N…   114273
##  8 12/25/… 16:35     75 18:15  Adolphe Ad… O Helga natt (Cantique de N…   114273
##  9 12/25/… 18:51      5 18:15  Adolphe Ad… O Helga natt (Cantique de N…   114273
## 10 12/25/… 19:35      8 18:15  Adolphe Ad… O Helga natt (Cantique de N…   114273
## # … with 34,329 more rows

# created a new column converting milliseconds to minutes
joined1 %>% mutate(minsPlayed = msPlayed/60000)

## # A tibble: 34,339 x 8
##    date   time.x steps time.y artistName  trackName          msPlayed minsPlayed
##    <chr>  <chr>  <dbl> <chr>  <chr>       <chr>                 <dbl>      <dbl>
##  1 12/25… 8:29      13 18:15  Adolphe Ad… O Helga natt (Can…   114273       1.90
##  2 12/25… 9:53      18 18:15  Adolphe Ad… O Helga natt (Can…   114273       1.90
##  3 12/25… 10:27     12 18:15  Adolphe Ad… O Helga natt (Can…   114273       1.90
##  4 12/25… 12:06     38 18:15  Adolphe Ad… O Helga natt (Can…   114273       1.90
##  5 12/25… 13:10     16 18:15  Adolphe Ad… O Helga natt (Can…   114273       1.90
##  6 12/25… 15:10     10 18:15  Adolphe Ad… O Helga natt (Can…   114273       1.90
##  7 12/25… 15:57    121 18:15  Adolphe Ad… O Helga natt (Can…   114273       1.90
##  8 12/25… 16:35     75 18:15  Adolphe Ad… O Helga natt (Can…   114273       1.90
##  9 12/25… 18:51      5 18:15  Adolphe Ad… O Helga natt (Can…   114273       1.90
## 10 12/25… 19:35      8 18:15  Adolphe Ad… O Helga natt (Can…   114273       1.90
## # … with 34,329 more rows

# used summarise to sum up all the steps taken within a
# single date
joined1 %>% group_by(date) %>% summarise(sum = sum(steps))

## # A tibble: 38 x 2
##    date        sum
##    <chr>     <dbl>
##  1 12/25/19    346
##  2 3/25/20   40188
##  3 3/26/20   95410
##  4 3/27/20   45855
##  5 3/29/20   80592
##  6 3/31/20   56430
##  7 4/10/20  100940
##  8 4/11/20  206424
##  9 4/12/20  146688
## 10 4/13/20   80316
## # … with 28 more rows
…
joined1 %>% summarise_if(is.numeric, n_distinct, na.rm = TRUE)

## # A tibble: 1 x 2
##   steps msPlayed
##   <int>    <int>
## 1   318     1092

# when grouped by categorical variable
joined1 %>% group_by(date) %>% summarise_if(is.numeric, mean, 
    na.rm = TRUE)

## # A tibble: 38 x 3
##    date     steps msPlayed
##    <chr>    <dbl>    <dbl>
##  1 12/25/19  31.5  114273 
##  2 3/25/20   72.0  204795.
##  3 3/26/20   71.5  140068.
##  4 3/27/20  122.   123927.
##  5 3/29/20   68.7   75503.
##  6 3/31/20  273.    77634.
##  7 4/10/20  137.   145173.
##  8 4/11/20  191.   130682.
##  9 4/12/20  133.    85816.
## 10 4/13/20  178.   107559.
## # … with 28 more rows

joined1 %>% group_by(date) %>% summarise_if(is.numeric, sd, na.rm = TRUE)

## # A tibble: 38 x 3
##    date     steps msPlayed
##    <chr>    <dbl>    <dbl>
##  1 12/25/19  35.8       0 
##  2 3/25/20  176.   125528.
##  3 3/26/20   74.4   98818.
##  4 3/27/20  170.   121620.
##  5 3/29/20  111.    97667.
##  6 3/31/20  300.   103061.
##  7 4/10/20  156.    93742.
##  8 4/11/20  181.   109906.
##  9 4/12/20  182.   102150.
## 10 4/13/20  140.   107173.
## # … with 28 more rows

joined1 %>% group_by(date) %>% summarise_if(is.numeric, var, 
    na.rm = TRUE)

## # A tibble: 38 x 3
##    date      steps     msPlayed
##    <chr>     <dbl>        <dbl>
##  1 12/25/19  1281.           0 
##  2 3/25/20  30898. 15757319306.
##  3 3/26/20   5540.  9764936887.
##  4 3/27/20  28804. 14791544180.
##  5 3/29/20  12385.  9538883385.
##  6 3/31/20  90240. 10621600664.
##  7 4/10/20  24349.  8787604884.
##  8 4/11/20  32672. 12079282295.
##  9 4/12/20  33133. 10434678130.
## 10 4/13/20  19597. 11486123705.
## # … with 28 more rows

joined1 %>% group_by(date) %>% summarise_if(is.numeric, quantile, 
    na.rm = TRUE)

## # A tibble: 190 x 3
## # Groups:   date [38]
##    date     steps msPlayed
##    <chr>    <dbl>    <dbl>
##  1 12/25/19     5   114273
##  2 12/25/19    11   114273
##  3 12/25/19    16   114273
##  4 12/25/19    34   114273
##  5 12/25/19   121   114273
##  6 3/25/20      1    23894
##  7 3/25/20      5   125666
##  8 3/25/20      8   185973
##  9 3/25/20     35   281613
## 10 3/25/20    992   425653
## # … with 180 more rows

joined1 %>% group_by(artistName) %>% summarise_if(is.numeric, 
    min, na.rm = TRUE)

## # A tibble: 545 x 3
##    artistName          steps msPlayed
##    <chr>               <dbl>    <dbl>
##  1 2CELLOS                 1   192840
##  2 311                     2   206973
##  3 5 Seconds of Summer    10    37898
##  4 A Great Big World       4   218133
##  5 ABBA                    1      267
##  6 Adolphe Adam            5   114273
##  7 Afroman                 6     1898
##  8 AJR                     3   212783
##  9 Alain Souchon           3    16810
## 10 Alan Jackson            2   230266
## # … with 535 more rows

joined1 %>% group_by(artistName) %>% summarise_if(is.numeric, 
    max, na.rm = TRUE)

## # A tibble: 545 x 3
##    artistName          steps msPlayed
##    <chr>               <dbl>    <dbl>
##  1 2CELLOS               445   192840
##  2 311                   555   206973
##  3 5 Seconds of Summer   541    37898
##  4 A Great Big World     390   229320
##  5 ABBA                  445   251786
##  6 Adolphe Adam          121   114273
##  7 Afroman               617     1898
##  8 AJR                   590   212783
##  9 Alain Souchon         590    16810
## 10 Alan Jackson          667   230266
## # … with 535 more rows

joined1 %>% group_by(artistName, trackName) %>% summarise_if(is.numeric, 
    n_distinct, na.rm = TRUE)

## # A tibble: 930 x 4
## # Groups:   artistName [545]
##    artistName          trackName           steps msPlayed
##    <chr>               <chr>               <int>    <int>
##  1 2CELLOS             Moon River             17        1
##  2 311                 Amber                  25        1
##  3 5 Seconds of Summer Wildflower             17        1
##  4 A Great Big World   Kaleidoscope           24        1
##  5 A Great Big World   You                    15        1
##  6 ABBA                Dancing Queen          20        1
##  7 ABBA                Mamma Mia              17        1
##  8 ABBA                Money, Money, Money    17        1
##  9 ABBA                SOS                    11        1
## 10 ABBA                Super Trouper          28        2
## # … with 920 more rows
…
